\relax 
\providecommand\hyper@newdestlabel[2]{}
\providecommand\HyperFirstAtBeginDocument{\AtBeginDocument}
\HyperFirstAtBeginDocument{\ifx\hyper@anchor\@undefined
\global\let\oldcontentsline\contentsline
\gdef\contentsline#1#2#3#4{\oldcontentsline{#1}{#2}{#3}}
\global\let\oldnewlabel\newlabel
\gdef\newlabel#1#2{\newlabelxx{#1}#2}
\gdef\newlabelxx#1#2#3#4#5#6{\oldnewlabel{#1}{{#2}{#3}}}
\AtEndDocument{\ifx\hyper@anchor\@undefined
\let\contentsline\oldcontentsline
\let\newlabel\oldnewlabel
\fi}
\fi}
\global\let\hyper@last\relax 
\gdef\HyperFirstAtBeginDocument#1{#1}
\providecommand\HyField@AuxAddToFields[1]{}
\providecommand\HyField@AuxAddToCoFields[2]{}
\providecommand \oddpage@label [2]{}
\@writefile{toc}{\contentsline {section}{\numberline {1}Analysis of Flaws}{1}{section.1}\protected@file@percent }
\@writefile{toc}{\contentsline {subsection}{\numberline {1.1}List of all flaws}{1}{subsection.1.1}\protected@file@percent }
\@writefile{toc}{\contentsline {subsection}{\numberline {1.2}SQL Injection}{1}{subsection.1.2}\protected@file@percent }
\@writefile{toc}{\contentsline {subsection}{\numberline {1.3}Plaintext passwords}{2}{subsection.1.3}\protected@file@percent }
\@writefile{toc}{\contentsline {section}{\numberline {2}Fixes Implemented}{3}{section.2}\protected@file@percent }
\@writefile{toc}{\contentsline {subsection}{\numberline {2.1}SQL Injection}{3}{subsection.2.1}\protected@file@percent }
\@writefile{toc}{\contentsline {subsection}{\numberline {2.2}Plaintext passwords}{3}{subsection.2.2}\protected@file@percent }
